<svg width="24" height="24" viewBox="0 0 24 24" fill="none" xmlns="http://www.w3.org/2000/svg">
<path fill-rule="evenodd" clip-rule="evenodd" d="M19.2806 7.15547H6.00368L5.03638 4.79144L4.11035 5.16889L8.31776 15.5314L18.1088 13.4186L19.2806 7.15547ZM8.50001 16.5C9.60458 16.5 10.5 17.3954 10.5 18.5C10.5 19.6046 9.60458 20.5 8.50001 20.5C7.39544 20.5 6.50001 19.6046 6.50001 18.5C6.50001 17.3954 7.39544 16.5 8.50001 16.5ZM17.5 16.5C18.6046 16.5 19.5 17.3954 19.5 18.5C19.5 19.6046 18.6046 20.5 17.5 20.5C16.3954 20.5 15.5 19.6046 15.5 18.5C15.5 17.3954 16.3954 16.5 17.5 16.5Z" fill="#D9D9DE"/>
</svg>
