<svg width="36" height="36" viewBox="0 0 36 36" fill="none" xmlns="http://www.w3.org/2000/svg">
<path fill-rule="evenodd" clip-rule="evenodd" d="M6 3C6 2.44772 6.44772 2 7 2H29C29.5523 2 30 2.44772 30 3V33C30 33.5523 29.5523 34 29 34H7C6.44772 34 6 33.5523 6 33V3ZM8 9.75V32H28V9.75H8ZM8 8.25H28V4H8V8.25ZM18 28C21.866 28 25 24.866 25 21C25 17.134 21.866 14 18 14C14.134 14 11 17.134 11 21C11 24.866 14.134 28 18 28ZM18 26C15.2386 26 13 23.7614 13 21C13 18.2386 15.2386 16 18 16C20.7614 16 23 18.2386 23 21C23 23.7614 20.7614 26 18 26ZM25 5C24.4477 5 24 5.44772 24 6C24 6.55228 24.4477 7 25 7C25.5523 7 26 6.55228 26 6C26 5.44772 25.5523 5 25 5Z" fill="#3450F2"/>
</svg>
